{"count":10,"total":153,"_links":{"self":{"href":"/communications"},"first":{"href":"/communications?page=1"},"next":{"href":"/communications?page=2"},"last":{"href":"/communications?page=16"}},"_embedded":{"items":[{"urn":"1","recordType":"Email Address","numberOrAddress":"Andrew.coleman@test.com","dateCreated":"2019-09-09T07:46:03.93","createdBy":"MILLS","_links":{"self":{"href":"/communications/301"}}},{"urn":"2","recordType":"Email Address","numberOrAddress":"KKmadrigal","retainPeriod":"6 Years","retainDate":"2025-09-09T00:00:00","dateCreated":"2019-09-09T07:46:06.977","createdBy":"MILLS","dateLastUpdated":"2019-09-09T09:25:15.41","lastUpdatedBy":"MILLS","_links":{"self":{"href":"/communications/302"}}},{"urn":"3","recordType":"Telephone Number","numberOrAddress":"07769 672138","retainPeriod":"6 Years","retainDate":"2025-09-09T00:00:00","dateCreated":"2019-09-09T07:46:07.07","createdBy":"MILLS","dateLastUpdated":"2019-09-09T09:23:49.613","lastUpdatedBy":"MILLS","_links":{"self":{"href":"/communications/303"}}},{"urn":"4","reference":"2019/C/0001","recordType":"Email Address","reviewPeriod":"4 Days","reviewDate":"2019-09-13T00:00:00","numberOrAddress":"Asher@hotmail.com","recordStatus":"Active","dateCreated":"2019-09-09T14:18:41.253","createdBy":"Rees","_links":{"self":{"href":"/communications/304"}}},{"urn":"5","reference":"2019/C/0002","recordType":"Telephone Number","reviewPeriod":"3 Months","reviewDate":"2019-12-09T00:00:00","numberOrAddress":"0117611012","countryCode":"44","stdCode":"0117","exchange":"Bristol","recordStatus":"Active","dateCreated":"2019-09-09T14:18:41.27","createdBy":"Walker","_links":{"self":{"href":"/communications/305"}}},{"urn":"6","reference":"2019/C/0003","recordType":"Telephone Number","reviewPeriod":"1 Month","reviewDate":"2019-10-09T00:00:00","numberOrAddress":"0120094171","countryCode":"44","stdCode":"01200","exchange":"Clitheroe","recordStatus":"Active","dateCreated":"2019-09-09T14:18:41.277","createdBy":"Davis","_links":{"self":{"href":"/communications/306"}}},{"urn":"7","reference":"2019/C/0004","recordType":"Telephone Number","reviewPeriod":"4 Years","reviewDate":"2023-09-09T00:00:00","numberOrAddress":"0120578316","countryCode":"44","stdCode":"01205","exchange":"Boston","recordStatus":"Active","dateCreated":"2019-09-09T14:18:41.287","createdBy":"Davis","_links":{"self":{"href":"/communications/307"}}},{"urn":"8","reference":"2019/C/0005","recordType":"Email Address","reviewPeriod":"1 Day","reviewDate":"2019-09-10T00:00:00","numberOrAddress":"Nevaeh@gmx.com","recordStatus":"Active","dateCreated":"2019-09-09T14:18:41.293","createdBy":"Davis","_links":{"self":{"href":"/communications/308"}}},{"urn":"9","reference":"2019/C/0006","recordType":"Telephone Number","reviewPeriod":"4 Months","reviewDate":"2020-01-09T00:00:00","numberOrAddress":"0114426040","countryCode":"44","stdCode":"0114","exchange":"Sheffield","recordStatus":"Active","dateCreated":"2019-09-09T14:18:41.3","createdBy":"Davis","_links":{"self":{"href":"/communications/309"}}},{"urn":"10","reference":"2019/C/0007","recordType":"Telephone Number","reviewPeriod":"2 Years","reviewDate":"2021-09-09T00:00:00","numberOrAddress":"0117349471","countryCode":"44","stdCode":"0117","exchange":"Bristol","recordStatus":"Active","dateCreated":"2019-09-09T14:18:41.307","createdBy":"Davis","_links":{"self":{"href":"/communications/310"}}}]}}