{"count":10,"total":102,"_links":{"self":{"href":"/persons"},"first":{"href":"/persons?page=1"},"next":{"href":"/persons?page=2"},"last":{"href":"/persons?page=11"}},"_embedded":{"items":[{"urn":"1","forename":"Andrew","surname":"COLEMAN","fullName":"Andrew COLEMAN","isCalculatedDateOfBirth":false,"occupation":"Butcher","preferredLanguage":"English","retainPeriod":"6 Years","retainDate":"2025-09-09T00:00:00","dateCreated":"2019-09-09T07:46:03.883","createdBy":"MILLS","dateLastUpdated":"2019-09-13T06:23:40.567","lastUpdatedBy":"MILLS","_links":{"self":{"href":"/persons/210"}}},{"urn":"2","forename":"Kevin","surname":"KIRBY","fullName":"Kevin KIRBY","isCalculatedDateOfBirth":false,"preferredLanguage":"English","retainPeriod":"6 Years","retainDate":"2025-09-09T00:00:00","dateCreated":"2019-09-09T07:46:06.963","createdBy":"MILLS","dateLastUpdated":"2019-09-13T06:25:16.583","lastUpdatedBy":"MILLS","_links":{"self":{"href":"/persons/211"}}},{"urn":"9","reference":"2019/P/0001","reviewPeriod":"5 Days","reviewDate":"2019-09-14T00:00:00","forename":"Emma","surname":"BERNARD","fullName":"Emma BERNARD","isCalculatedDateOfBirth":false,"dateOfBirth":"1990-04-29T00:00:00","placeOfBirth":"Newcastle, North East","gender":"Female","nationality":"British","recordStatus":"Active","dateCreated":"2019-09-09T14:18:34.353","createdBy":"Mills","_links":{"self":{"href":"/persons/218"}}},{"urn":"10","reference":"2019/P/0002","reviewPeriod":"4 Months","reviewDate":"2020-01-09T00:00:00","forename":"Valarie","surname":"KOWALSKI","fullName":"Valarie KOWALSKI","isCalculatedDateOfBirth":false,"dateOfBirth":"1981-03-13T00:00:00","placeOfBirth":"Solihull, West Midlands","gender":"Female","nationality":"British","recordStatus":"Active","dateCreated":"2019-09-09T14:18:34.387","createdBy":"Rees","_links":{"self":{"href":"/persons/219"}}},{"urn":"11","reference":"2019/P/0003","reviewPeriod":"5 Months","reviewDate":"2020-02-09T00:00:00","forename":"Logan","surname":"BYRNE","fullName":"Logan BYRNE","isCalculatedDateOfBirth":false,"dateOfBirth":"1981-03-29T00:00:00","placeOfBirth":"East Kilbride, Scotland","gender":"Male","nationality":"British","recordStatus":"Active","dateCreated":"2019-09-09T14:18:34.393","createdBy":"Mills","_links":{"self":{"href":"/persons/220"}}},{"urn":"12","reference":"2019/P/0004","reviewPeriod":"5 Days","reviewDate":"2019-09-14T00:00:00","forename":"Wayne","surname":"BENBOW","fullName":"Wayne BENBOW","isCalculatedDateOfBirth":false,"dateOfBirth":"1980-12-03T00:00:00","placeOfBirth":"Felixstowe, Suffolk","gender":"Male","nationality":"British","recordStatus":"Active","dateCreated":"2019-09-09T14:18:34.4","createdBy":"Rees","_links":{"self":{"href":"/persons/221"}}},{"urn":"13","reference":"2019/P/0005","reviewPeriod":"6 Years","reviewDate":"2025-09-09T00:00:00","forename":"Elijah","surname":"BEGUM","fullName":"Elijah BEGUM","isCalculatedDateOfBirth":false,"dateOfBirth":"1974-04-07T00:00:00","placeOfBirth":"Bristol","gender":"Male","nationality":"British","recordStatus":"Active","dateCreated":"2019-09-09T14:18:34.407","createdBy":"Walker","_links":{"self":{"href":"/persons/222"}}},{"urn":"14","reference":"2019/P/0006","reviewPeriod":"4 Weeks","reviewDate":"2019-10-07T00:00:00","forename":"Lynette","surname":"HARPER","fullName":"Lynette HARPER","isCalculatedDateOfBirth":false,"dateOfBirth":"1980-01-20T00:00:00","placeOfBirth":"Sheffield, Yorkshire","gender":"Female","nationality":"British","recordStatus":"Active","dateCreated":"2019-09-09T14:18:34.413","createdBy":"Rees","_links":{"self":{"href":"/persons/223"}}},{"urn":"15","reference":"2019/P/0007","reviewPeriod":"6 Months","reviewDate":"2020-03-09T00:00:00","forename":"Stanley","surname":"ROBERT","fullName":"Stanley ROBERT","isCalculatedDateOfBirth":false,"dateOfBirth":"1982-05-28T00:00:00","placeOfBirth":"Gloucester, Gloucestershire","gender":"Male","nationality":"British","recordStatus":"Active","dateCreated":"2019-09-09T14:18:34.423","createdBy":"Palmer","_links":{"self":{"href":"/persons/224"}}},{"urn":"16","reference":"2019/P/0008","reviewPeriod":"6 Months","reviewDate":"2020-03-09T00:00:00","forename":"Megan","surname":"MCDOUGALL","fullName":"Megan MCDOUGALL","isCalculatedDateOfBirth":false,"dateOfBirth":"2001-04-23T00:00:00","placeOfBirth":"Stoke, West Midlands","gender":"Female","nationality":"British","recordStatus":"Active","dateCreated":"2019-09-09T14:18:34.43","createdBy":"Walker","_links":{"self":{"href":"/persons/225"}}}]}}