{"count":10,"total":141,"_links":{"self":{"href":"/statements"},"first":{"href":"/statements?page=1"},"next":{"href":"/statements?page=2"},"last":{"href":"/statements?page=15"}},"_embedded":{"items":[{"urn":"8","title":"Statement given by Valarie KOWALSKI on 01/02/2019","dateTaken":"2019-02-01T00:00:00","timeTaken":"13:10","reviewPeriod":"6 Weeks","reviewDate":"2019-03-15T00:00:00","dateCreated":"2019-09-09T14:20:07.01","createdBy":"Smart","_links":{"self":{"href":"/statements/219"}}},{"urn":"9","title":"Statement given by Linda BAGINSKI on 17/05/2019","dateTaken":"2019-05-17T00:00:00","timeTaken":"06:50","reviewPeriod":"3 Months","reviewDate":"2019-08-17T00:00:00","dateCreated":"2019-09-09T14:20:07.073","createdBy":"Davis","_links":{"self":{"href":"/statements/220"}}},{"urn":"10","title":"Statement given by Horace JONSSON on 17/05/2019","dateTaken":"2019-05-17T00:00:00","timeTaken":"11:30","reviewPeriod":"6 Months","reviewDate":"2019-11-17T00:00:00","dateCreated":"2019-09-09T14:20:07.107","createdBy":"Smart","_links":{"self":{"href":"/statements/221"}}},{"urn":"11","title":"Statement given by Marianne ANDREASSEN on 02/02/2019","dateTaken":"2019-02-02T00:00:00","timeTaken":"13:10","reviewPeriod":"2 Months","reviewDate":"2019-04-02T00:00:00","dateCreated":"2019-09-09T14:20:07.14","createdBy":"Mills","_links":{"self":{"href":"/statements/222"}}},{"urn":"12","title":"Statement given by Alberto WILD on 02/03/2019","dateTaken":"2019-03-02T00:00:00","timeTaken":"15:10","reviewPeriod":"4 Days","reviewDate":"2019-03-06T00:00:00","dateCreated":"2019-09-09T14:20:07.173","createdBy":"Davis","_links":{"self":{"href":"/statements/223"}}},{"urn":"13","title":"Statement given by Jolyon VEITCH on 17/05/2019","dateTaken":"2019-05-17T00:00:00","timeTaken":"13:00","reviewPeriod":"4 Days","reviewDate":"2019-05-21T00:00:00","dateCreated":"2019-09-09T14:20:07.207","createdBy":"Davis","_links":{"self":{"href":"/statements/224"}}},{"urn":"14","title":"Statement given by Aubrey CHOUDHURY on 29/04/2019","dateTaken":"2019-04-29T00:00:00","timeTaken":"15:00","reviewPeriod":"5 Days","reviewDate":"2019-05-04T00:00:00","dateCreated":"2019-09-09T14:20:07.24","createdBy":"Rees","_links":{"self":{"href":"/statements/225"}}},{"urn":"15","title":"Statement given by Dale CARLSSON on 19/04/2019","dateTaken":"2019-04-19T00:00:00","timeTaken":"17:40","reviewPeriod":"3 Years","reviewDate":"2022-04-19T00:00:00","dateCreated":"2019-09-09T14:20:07.27","createdBy":"Mills","_links":{"self":{"href":"/statements/226"}}},{"urn":"16","title":"Statement given by Dorothy BRYDON on 22/03/2019","dateTaken":"2019-03-22T00:00:00","timeTaken":"07:30","reviewPeriod":"4 Days","reviewDate":"2019-03-26T00:00:00","dateCreated":"2019-09-09T14:20:07.303","createdBy":"Cooper","_links":{"self":{"href":"/statements/227"}}},{"urn":"17","title":"Statement given by Etilan MELVIN on 04/02/2019","dateTaken":"2019-02-04T00:00:00","timeTaken":"16:00","reviewPeriod":"4 Months","reviewDate":"2019-06-04T00:00:00","dateCreated":"2019-09-09T14:20:07.337","createdBy":"Davis","_links":{"self":{"href":"/statements/228"}}}]}}