{"count":10,"total":104,"_links":{"self":{"href":"/addresses"},"first":{"href":"/addresses?page=1"},"next":{"href":"/addresses?page=2"},"last":{"href":"/addresses?page=11"}},"_embedded":{"items":[{"urn":"1","addressLine1":"24A Priory Street","addressLine2":"York","postcode":"YO1 6EX","latitude":53.95546,"longitude":-1.088,"fullAddress":"24A Priory Street, York, YO1 6EX","retainPeriod":"6 Years","retainDate":"2025-09-09T00:00:00","dateCreated":"2019-09-09T07:52:06.18","createdBy":"MILLS","dateLastUpdated":"2019-09-09T07:52:49.963","lastUpdatedBy":"MILLS","_links":{"self":{"href":"/addresses/201"}}},{"urn":"2","addressLine1":"Coleman address","fullAddress":"Coleman address","retainPeriod":"6 Years","retainDate":"2025-09-09T00:00:00","dateCreated":"2019-09-09T07:56:15.167","createdBy":"MILLS","_links":{"self":{"href":"/addresses/202"}}},{"urn":"3","addressLine1":"Fulford Road Police Station","addressLine2":"Fulford Road","addressLine3":"York","postcode":"YO10 4BY","latitude":53.94474,"longitude":-1.07382,"fullAddress":"Fulford Road Police Station, Fulford Road, York, YO10 4BY","retainPeriod":"6 Years","retainDate":"2025-09-09T00:00:00","dateCreated":"2019-09-09T07:59:24.667","createdBy":"MILLS","_links":{"self":{"href":"/addresses/203"}}},{"urn":"4","addressLine1":"3 Alcuin Avenue","addressLine2":"York","postcode":"YO10 3TQ","latitude":53.95694,"longitude":-1.0543,"fullAddress":"3 Alcuin Avenue, York, YO10 3TQ","retainPeriod":"6 Years","retainDate":"2025-09-09T00:00:00","dateCreated":"2019-09-09T09:18:02.143","createdBy":"MILLS","_links":{"self":{"href":"/addresses/204"}}},{"urn":"8","reference":"2019/A/0001","reviewPeriod":"3 Months","reviewDate":"2019-12-09T00:00:00","type":"House","addressLine1":"2 Buckmaster House","addressLine2":"London","addressLine3":"London","addressLine4":"Greater London","postcode":"N7 9SB","country":"England","easting":530625.0,"northing":185793.0,"latitude":51.555906,"longitude":-0.1172076,"fullAddress":"2 Buckmaster House, London, London, Greater London, England, N7 9SB","recordStatus":"Active","dateCreated":"2019-09-09T14:18:37.747","createdBy":"Mills","_links":{"self":{"href":"/addresses/208"}}},{"urn":"9","reference":"2019/A/0002","reviewPeriod":"3 Days","reviewDate":"2019-09-12T00:00:00","type":"Flat","addressLine1":"37 Millwood","addressLine2":"Chilton","addressLine3":"Ferryhill","addressLine4":"County Durham","postcode":"DL17 0RR","country":"England","easting":428307.0,"northing":529543.0,"latitude":54.660186,"longitude":-1.5627159,"fullAddress":"37 Millwood, Chilton, Ferryhill, County Durham, England, DL17 0RR","recordStatus":"Active","dateCreated":"2019-09-09T14:18:37.763","createdBy":"Palmer","_links":{"self":{"href":"/addresses/209"}}},{"urn":"10","reference":"2019/A/0003","reviewPeriod":"4 Days","reviewDate":"2019-09-13T00:00:00","type":"Flat","addressLine1":"15 Firth Close","addressLine2":"East Leake","addressLine3":"Loughborough","addressLine4":"Nottinghamshire","postcode":"LE12 6RU","country":"England","easting":455222.0,"northing":327150.0,"latitude":52.839041,"longitude":-1.1816514,"fullAddress":"15 Firth Close, East Leake, Loughborough, Nottinghamshire, England, LE12 6RU","recordStatus":"Active","dateCreated":"2019-09-09T14:18:37.77","createdBy":"Davis","_links":{"self":{"href":"/addresses/210"}}},{"urn":"11","reference":"2019/A/0004","reviewPeriod":"6 Years","reviewDate":"2025-09-09T00:00:00","type":"Bungalow","addressLine1":"8 Flyford Croft","addressLine2":"Birmingham","addressLine3":"Birmingham","addressLine4":"West Midlands","postcode":"B29 5XY","country":"England","easting":401804.0,"northing":282757.0,"latitude":52.442777,"longitude":-1.9748873,"fullAddress":"8 Flyford Croft, Birmingham, Birmingham, West Midlands, England, B29 5XY","recordStatus":"Active","dateCreated":"2019-09-09T14:18:37.78","createdBy":"Mills","_links":{"self":{"href":"/addresses/211"}}},{"urn":"12","reference":"2019/A/0005","reviewPeriod":"6 Months","reviewDate":"2020-03-09T00:00:00","type":"Bungalow and Garage","addressLine1":"4 South Grove","addressLine2":"Aycliffe Village","addressLine3":"Newton Aycliffe","addressLine4":"County Durham","postcode":"DL5 6LZ","country":"England","easting":428559.0,"northing":522367.0,"latitude":54.595685,"longitude":-1.5595066,"fullAddress":"4 South Grove, Aycliffe Village, Newton Aycliffe, County Durham, England, DL5 6LZ","recordStatus":"Active","dateCreated":"2019-09-09T14:18:37.783","createdBy":"Mills","_links":{"self":{"href":"/addresses/212"}}},{"urn":"13","reference":"2019/A/0006","reviewPeriod":"1 Week","reviewDate":"2019-09-16T00:00:00","type":"Bungalow and Garage","addressLine1":"9 Sandhurst Road","addressLine2":"Bedford","addressLine3":"Bedford","addressLine4":"Bedford","postcode":"MK42","country":"England","easting":505174.0,"northing":249065.0,"latitude":52.129893,"longitude":-0.46494464,"fullAddress":"9 Sandhurst Road, Bedford, Bedford, Bedford, England, MK42","recordStatus":"Active","dateCreated":"2019-09-09T14:18:37.79","createdBy":"Davis","_links":{"self":{"href":"/addresses/213"}}}]}}