{"count":10,"total":389,"_links":{"self":{"href":"/material"},"first":{"href":"/material?page=1"},"next":{"href":"/material?page=2"},"last":{"href":"/material?page=39"}},"_embedded":{"items":[{"urn":"9","title":"Certificates of authentication","isExhibit":true,"reference":"VK/0001","whenFound":"2019-04-10T07:10:00","type":"Other","subtype":"Certificates of authentication","reviewPeriod":"1 Year","reviewDate":"2020-04-10T00:00:00","dateCreated":"2019-09-09T14:21:20.183","createdBy":"Mills","_links":{"self":{"href":"/material/619"}}},{"urn":"10","title":"Interviews transcripts","isExhibit":true,"reference":"VK/0002","whenFound":"2019-01-23T18:10:00","type":"Interviews","subtype":"Transcripts","reviewPeriod":"6 Months","reviewDate":"2019-10-10T00:00:00","dateCreated":"2019-09-09T14:21:20.26","createdBy":"Palmer","_links":{"self":{"href":"/material/620"}}},{"urn":"11","title":"Bank statement","isExhibit":true,"reference":"VK/0003","whenFound":"2019-05-14T12:00:00","type":"Documents","subtype":"Bank statement","reviewPeriod":"5 Months","reviewDate":"2019-09-10T00:00:00","dateCreated":"2019-09-09T14:21:20.277","createdBy":"Rees","_links":{"self":{"href":"/material/621"}}},{"urn":"12","title":"Evidence Log","isExhibit":true,"reference":"LB/0001","whenFound":"2019-02-15T18:00:00","type":"Logs","subtype":"Evidence","reviewPeriod":"1 Day","reviewDate":"2019-01-24T00:00:00","dateCreated":"2019-09-09T14:21:20.327","createdBy":"Walker","_links":{"self":{"href":"/material/622"}}},{"urn":"13","title":"Audio Interview","isExhibit":true,"reference":"LB/0002","whenFound":"2019-02-15T14:00:00","type":"Interviews","subtype":"Audio","reviewPeriod":"6 Weeks","reviewDate":"2019-03-06T00:00:00","dateCreated":"2019-09-09T14:21:20.35","createdBy":"Cooper","_links":{"self":{"href":"/material/623"}}},{"urn":"14","title":"e-Reader","isExhibit":true,"reference":"LB/0003","whenFound":"2019-05-16T13:40:00","type":"Digital Devices","subtype":"e-Reader","reviewPeriod":"5 Months","reviewDate":"2019-06-23T00:00:00","dateCreated":"2019-09-09T14:21:20.373","createdBy":"Cooper","_links":{"self":{"href":"/material/624"}}},{"urn":"15","title":"Hospital Records","isExhibit":true,"reference":"LB/0004","whenFound":"2019-02-28T13:10:00","type":"Records","subtype":"Hospital","reviewPeriod":"3 Weeks","reviewDate":"2019-02-13T00:00:00","dateCreated":"2019-09-09T14:21:20.4","createdBy":"Cooper","_links":{"self":{"href":"/material/625"}}},{"urn":"16","title":"Audio Recording","isExhibit":true,"reference":"HJ/0001","whenFound":"2019-04-13T10:50:00","type":"Media","subtype":"Audio","reviewPeriod":"6 Months","reviewDate":"2019-11-14T00:00:00","dateCreated":"2019-09-09T14:21:20.423","createdBy":"Mills","_links":{"self":{"href":"/material/626"}}},{"urn":"17","title":"Forensic Records","isExhibit":true,"reference":"HJ/0002","whenFound":"2019-05-16T12:40:00","type":"Records","subtype":"Forensic","reviewPeriod":"5 Years","reviewDate":"2024-05-14T00:00:00","dateCreated":"2019-09-09T14:21:20.45","createdBy":"Davis","_links":{"self":{"href":"/material/627"}}},{"urn":"18","title":"Interviews transcripts","isExhibit":true,"reference":"HJ/0003","whenFound":"2019-05-16T17:00:00","type":"Interviews","subtype":"Transcripts","reviewPeriod":"6 Days","reviewDate":"2019-05-20T00:00:00","dateCreated":"2019-09-09T14:21:20.477","createdBy":"Singh","_links":{"self":{"href":"/material/628"}}}]}}