{"count":10,"total":18,"_links":{"self":{"href":"/organisations"},"first":{"href":"/organisations?page=1"},"next":{"href":"/organisations?page=2"},"last":{"href":"/organisations?page=2"}},"_embedded":{"items":[{"urn":"1","name":"Avon & Somerset Police","type":"Public Body","retainPeriod":"6 Years","retainDate":"2025-09-13T00:00:00","dateCreated":"2019-09-13T06:42:14.537","createdBy":"MILLS","_links":{"self":{"href":"/organisations/318"}}},{"urn":"2","name":"South Wales Police","type":"Public Body","retainPeriod":"6 Years","retainDate":"2025-09-13T00:00:00","dateCreated":"2019-09-13T06:42:30.333","createdBy":"MILLS","_links":{"self":{"href":"/organisations/319"}}},{"urn":"3","name":"Bedfordshire Police","type":"Public Body","retainPeriod":"6 Years","retainDate":"2025-09-13T00:00:00","dateCreated":"2019-09-13T07:04:28.93","createdBy":"MILLS","_links":{"self":{"href":"/organisations/320"}}},{"urn":"4","name":"Cheshire Constabulary","type":"Public Body","retainPeriod":"6 Years","retainDate":"2025-09-13T00:00:00","dateCreated":"2019-09-13T07:04:31.62","createdBy":"MILLS","_links":{"self":{"href":"/organisations/321"}}},{"urn":"5","name":"Cleveland Police","type":"Public Body","retainPeriod":"6 Years","retainDate":"2025-09-13T00:00:00","dateCreated":"2019-09-13T07:04:33.383","createdBy":"MILLS","_links":{"self":{"href":"/organisations/322"}}},{"urn":"6","name":"Derbyshire Constabulary","type":"Public Body","retainPeriod":"6 Years","retainDate":"2025-09-13T00:00:00","dateCreated":"2019-09-13T07:04:35.057","createdBy":"MILLS","_links":{"self":{"href":"/organisations/323"}}},{"urn":"7","name":"Dorset Police","type":"Public Body","retainPeriod":"6 Years","retainDate":"2025-09-13T00:00:00","dateCreated":"2019-09-13T07:04:36.587","createdBy":"MILLS","_links":{"self":{"href":"/organisations/324"}}},{"urn":"8","name":"Essex Police","type":"Public Body","retainPeriod":"6 Years","retainDate":"2025-09-13T00:00:00","dateCreated":"2019-09-13T07:04:38.01","createdBy":"MILLS","_links":{"self":{"href":"/organisations/325"}}},{"urn":"9","name":"Greater Manchester Police","type":"Public Body","retainPeriod":"6 Years","retainDate":"2025-09-13T00:00:00","dateCreated":"2019-09-13T07:04:39.4","createdBy":"MILLS","_links":{"self":{"href":"/organisations/326"}}},{"urn":"10","name":"Hertfordshire Constabulary","type":"Public Body","retainPeriod":"6 Years","retainDate":"2025-09-13T00:00:00","dateCreated":"2019-09-13T07:04:40.79","createdBy":"MILLS","_links":{"self":{"href":"/organisations/327"}}}]}}