{"count":10,"total":299,"_links":{"self":{"href":"/tasks"},"first":{"href":"/tasks?page=1"},"next":{"href":"/tasks?page=2"},"last":{"href":"/tasks?page=30"}},"_embedded":{"items":[{"urn":"6","type":"Statement","status":"Complete","priority":"Medium","subject":"Take statement from subject","startDate":"2019-03-11T00:00:00","allocatedByAsText":"Olivia Mills","allocatedToAsText":"Laura Owen","reviewPeriod":"5 Weeks","reviewDate":"2019-04-15T00:00:00","dateCreated":"2019-09-09T14:18:47.893","createdBy":"Mills","_links":{"self":{"href":"/tasks/606"}}},{"urn":"7","type":"Interview","status":"Complete","priority":"Medium","subject":"Interview person who reported","startDate":"2019-03-11T00:00:00","allocatedByAsText":"Laura Owen","allocatedToAsText":"Jasmine Singh","reviewPeriod":"2 Months","reviewDate":"2019-05-11T00:00:00","dateCreated":"2019-09-09T14:18:47.91","createdBy":"Owen","_links":{"self":{"href":"/tasks/607"}}},{"urn":"8","type":"Financial","status":"Complete","priority":"High","subject":"Financial checks on person","startDate":"2019-02-17T00:00:00","allocatedByAsText":"Jasmine Singh","allocatedToAsText":"Liam Davis","reviewPeriod":"1 Year","reviewDate":"2020-02-17T00:00:00","dateCreated":"2019-09-09T14:18:47.917","createdBy":"Singh","_links":{"self":{"href":"/tasks/608"}}},{"urn":"9","type":"Statement","status":"Pending","priority":"Medium","subject":"Take statement from person","startDate":"2019-03-23T00:00:00","allocatedByAsText":"Chloe Cooper","allocatedToAsText":"Liam Davis","reviewPeriod":"5 Months","reviewDate":"2019-08-23T00:00:00","dateCreated":"2019-09-09T14:18:47.923","createdBy":"Cooper","_links":{"self":{"href":"/tasks/609"}}},{"urn":"10","type":"Statement","status":"Complete","priority":"Low","subject":"Take statement from person","startDate":"2019-03-08T00:00:00","allocatedByAsText":"Andrea Rees","allocatedToAsText":"Jasmine Singh","reviewPeriod":"2 Days","reviewDate":"2019-03-10T00:00:00","dateCreated":"2019-09-09T14:18:47.93","createdBy":"Rees","_links":{"self":{"href":"/tasks/610"}}},{"urn":"11","type":"Telephone","status":"Awaiting response","priority":"Low","subject":"Contact person reporting","startDate":"2019-05-03T00:00:00","allocatedByAsText":"Jasmine Singh","allocatedToAsText":"Liam Davis","reviewPeriod":"3 Days","reviewDate":"2019-05-06T00:00:00","dateCreated":"2019-09-09T14:18:47.94","createdBy":"Singh","_links":{"self":{"href":"/tasks/611"}}},{"urn":"12","type":"Statement","status":"Complete","priority":"Medium","subject":"Take statement from subject","startDate":"2019-03-23T00:00:00","allocatedByAsText":"Liam Davis","allocatedToAsText":"Aaron Walker","reviewPeriod":"5 Months","reviewDate":"2019-08-23T00:00:00","dateCreated":"2019-09-09T14:18:47.943","createdBy":"Davis","_links":{"self":{"href":"/tasks/612"}}},{"urn":"13","type":"Statement","status":"Complete","priority":"Low","subject":"Take statement from person","startDate":"2019-05-10T00:00:00","allocatedByAsText":"Liam Davis","allocatedToAsText":"Liam Davis","reviewPeriod":"6 Months","reviewDate":"2019-11-10T00:00:00","dateCreated":"2019-09-09T14:18:47.95","createdBy":"Davis","_links":{"self":{"href":"/tasks/613"}}},{"urn":"14","type":"Open source checks","status":"Pending","priority":"Low","subject":"Open source checks on subject","startDate":"2019-03-11T00:00:00","allocatedByAsText":"Liam Davis","allocatedToAsText":"Liam Davis","reviewPeriod":"3 Months","reviewDate":"2019-06-11T00:00:00","dateCreated":"2019-09-09T14:18:47.96","createdBy":"Davis","_links":{"self":{"href":"/tasks/614"}}},{"urn":"15","type":"Report","status":"Complete","priority":"Low","subject":"Prepare closing report for case","startDate":"2019-01-30T00:00:00","allocatedByAsText":"Laura Owen","allocatedToAsText":"Laura Owen","reviewPeriod":"6 Weeks","reviewDate":"2019-03-13T00:00:00","dateCreated":"2019-09-09T14:18:47.967","createdBy":"Owen","_links":{"self":{"href":"/tasks/615"}}}]}}