{"count":10,"total":41,"_links":{"self":{"href":"/vehicles"},"first":{"href":"/vehicles?page=1"},"next":{"href":"/vehicles?page=2"},"last":{"href":"/vehicles?page=5"}},"_embedded":{"items":[{"urn":"1","recordType":"Hatchback","registration":"WR59VXW","make":"Toyota","model":"Avensis","colour":"Silver","retainPeriod":"6 Years","retainDate":"2025-09-09T00:00:00","dateCreated":"2019-09-09T08:01:37.12","createdBy":"MILLS","_links":{"self":{"href":"/vehicles/1"}}},{"urn":"2","reference":"2019/V/0001","recordType":"Motor Vehicle","reviewPeriod":"3 Years","reviewDate":"2022-09-13T00:00:00","registration":"NF05UAU","class":"Sports","make":"RENAULT","model":"11","colour":"Black","recordStatus":"Active","retainPeriod":"6 Years","retainDate":"2025-09-13T00:00:00","dateCreated":"2019-09-13T06:45:48.997","createdBy":"Mills","dateLastUpdated":"2019-09-13T06:54:57.243","lastUpdatedBy":"MILLS","_links":{"self":{"href":"/vehicles/2"}}},{"urn":"3","reference":"2019/V/0002","recordType":"Motor Vehicle","reviewPeriod":"3 Weeks","reviewDate":"2019-10-04T00:00:00","registration":"YV52YJN","class":"Hatchback","make":"AUDI","model":"R8","colour":"Maroon","recordStatus":"Active","retainPeriod":"6 Years","retainDate":"2025-09-13T00:00:00","dateCreated":"2019-09-13T06:45:49.037","createdBy":"Davis","dateLastUpdated":"2019-09-13T06:57:20.383","lastUpdatedBy":"MILLS","_links":{"self":{"href":"/vehicles/3"}}},{"urn":"4","reference":"2019/V/0003","recordType":"Motor Vehicle","reviewPeriod":"2 Months","reviewDate":"2019-11-13T00:00:00","registration":"G599GVU","class":"Saloon","make":"VOLVO","model":"S70","colour":"Yellow","recordStatus":"Active","dateCreated":"2019-09-13T06:45:49.043","createdBy":"Walker","_links":{"self":{"href":"/vehicles/4"}}},{"urn":"5","reference":"2019/V/0004","recordType":"Motor Vehicle","reviewPeriod":"1 Month","reviewDate":"2019-10-13T00:00:00","registration":"M513CYR","class":"Estate","make":"MITSUBISHI","model":"Galant","colour":"Blue","recordStatus":"Active","retainPeriod":"6 Years","retainDate":"2025-09-13T00:00:00","dateCreated":"2019-09-13T06:45:49.05","createdBy":"Rees","dateLastUpdated":"2019-09-13T06:55:25.4","lastUpdatedBy":"MILLS","_links":{"self":{"href":"/vehicles/5"}}},{"urn":"6","reference":"2019/V/0005","recordType":"Motor Vehicle","reviewPeriod":"4 Months","reviewDate":"2020-01-13T00:00:00","registration":"FH05YZK","class":"Van","make":"CITROEN","model":"Nemo","colour":"Blue","recordStatus":"Active","dateCreated":"2019-09-13T06:45:49.057","createdBy":"Davis","_links":{"self":{"href":"/vehicles/6"}}},{"urn":"7","reference":"2019/V/0006","recordType":"Motor Vehicle","reviewPeriod":"5 Weeks","reviewDate":"2019-10-18T00:00:00","registration":"GO02EOC","class":"Saloon","make":"VAUXHALL","model":"Corsa","colour":"Silver","recordStatus":"Active","retainPeriod":"6 Years","retainDate":"2025-09-13T00:00:00","dateCreated":"2019-09-13T06:45:49.063","createdBy":"Rees","dateLastUpdated":"2019-09-13T06:54:18.57","lastUpdatedBy":"MILLS","_links":{"self":{"href":"/vehicles/7"}}},{"urn":"8","reference":"2019/V/0007","recordType":"Motor Vehicle","reviewPeriod":"6 Days","reviewDate":"2019-09-19T00:00:00","registration":"O336PKC","class":"Saloon","make":"PROTON","model":"Persona","colour":"Yellow","recordStatus":"Active","dateCreated":"2019-09-13T06:45:49.07","createdBy":"Smart","_links":{"self":{"href":"/vehicles/8"}}},{"urn":"9","reference":"2019/V/0008","recordType":"Motor Vehicle","reviewPeriod":"2 Days","reviewDate":"2019-09-15T00:00:00","registration":"J844RMM","class":"Saloon","make":"HONDA","model":"Logo","colour":"Green","recordStatus":"Active","dateCreated":"2019-09-13T06:45:49.077","createdBy":"Owen","_links":{"self":{"href":"/vehicles/9"}}},{"urn":"10","reference":"2019/V/0009","recordType":"Motor Vehicle","reviewPeriod":"4 Months","reviewDate":"2020-01-13T00:00:00","registration":"B298JJM","class":"Estate","make":"LAND ROVER","model":"Freelander 2","colour":"Brown","recordStatus":"Active","dateCreated":"2019-09-13T06:45:49.08","createdBy":"Davis","_links":{"self":{"href":"/vehicles/10"}}}]}}